…
The `vsg_rename()` function allows you to add a column for the clusters
produced by cd-hit in the VSGSeqpipeline. However, you do need to
provide a reference that has each VSG name and its associated cluster
name (I do this using this script
[MatchVSGs.py](additional_resources/)).

``` r
vsg_rename(results, "mock_data/cluster_reference_table.txt") %>%
  select(mouse, day, tissue, Percent, cluster, VSG)
#> # A tibble: 285 x 6
#>    mouse day   tissue Percent cluster    VSG                                    
#>    <chr> <chr> <chr>    <dbl> <chr>      <chr>                                  
#>  1 M13   D6    Ear        100 Cluster 72 TRINITY_DN478_c0_g1_i1_1_176_1568_M13_…
#>  2 M13   D6    Gon        100 Cluster 72 TRINITY_DN268_c0_g1_i1_1_44_1100_RC_M1…
#>  3 M13   D6    Heart      100 Cluster 72 TRINITY_DN77_c0_g1_i5_1_162_1554_M13_D…
#>  4 M13   D6    Lung       100 Cluster 72 TRINITY_DN12_c0_g1_i2_1_151_1543_M13_D…
#>  5 M13   D6    Sub        100 Cluster 72 TRINITY_DN236_c0_g1_i1_1_196_1588_M13_…
#>  6 M13   D6    blood      100 Cluster 72 TRINITY_DN0_c0_g2_i1_1_127_1519_RC_M13…
#>  7 M15   D10   Ear        100 Cluster 2  TRINITY_DN29_c0_g1_i1_1_62_1574_M15_D1…
#>  8 M15   D10   Gon        100 Cluster 2  TRINITY_DN243_c0_g1_i1_1_68_1580_M15_D…
#>  9 M15   D10   Heart      100 Cluster 2  TRINITY_DN4_c0_g1_i4_1_722_2234_M15_D1…
#> 10 M15   D10   Lung       100 Cluster 2  TRINITY_DN28_c0_g1_i1_1_68_1580_M15_D1…
#> # … with 275 more rows
```

Often when analyzing VSG expression, we count the total number of VSGs
in a sample. The `vsg_count` function helps streamline this with one
line of code.

``` r
results %>%
  vsg_count(mouse, day, tissue) 
#> # A tibble: 52 x 4
#>    mouse day   tissue vsg_count
#>    <chr> <chr> <chr>      <int>
#>  1 M13   D6    blood          1
#>  2 M13   D6    Ear            1
#>  3 M13   D6    Gon            1
#>  4 M13   D6    Heart          1
#>  5 M13   D6    Lung           1
#>  6 M13   D6    Sub            1
#>  7 M15   D10   blood         23
#>  8 M15   D10   Ear            1
#>  9 M15   D10   Gon            1
#> 10 M15   D10   Heart          1
#> # … with 42 more rows
…
The last function I wanted to highlight is little more niche.
`vsg_expand` is helpful if you want to create a data frame that has
includes all VSGs found and represents them in each sample. VSGs that
were not found in a sample are represented by having a Percent of 0,
meaning 0% of parasites expressed that VSG.

``` r
 vsg_expand(results, "samplename", "VSG") %>%
  select(samplename, Percent, VSG)
#> Joining, by = c("samplename", "VSG")
#> # A tibble: 14,820 x 3
#>    samplename Percent VSG                                               
#>    <chr>        <dbl> <chr>                                             
#>  1 M13_D6_Ear     100 TRINITY_DN478_c0_g1_i1_1_176_1568_M13_D6_Ear      
#>  2 M13_D6_Ear       0 TRINITY_DN268_c0_g1_i1_1_44_1100_RC_M13_D6_Gon_Fat
#>  3 M13_D6_Ear       0 TRINITY_DN77_c0_g1_i5_1_162_1554_M13_D6_Heart     
#>  4 M13_D6_Ear       0 TRINITY_DN12_c0_g1_i2_1_151_1543_M13_D6_Lung      
#>  5 M13_D6_Ear       0 TRINITY_DN236_c0_g1_i1_1_196_1588_M13_D6_Sub_Cu   
#>  6 M13_D6_Ear       0 TRINITY_DN0_c0_g2_i1_1_127_1519_RC_M13_D6_blood   
#>  7 M13_D6_Ear       0 TRINITY_DN29_c0_g1_i1_1_62_1574_M15_D10_Ear       
#>  8 M13_D6_Ear       0 TRINITY_DN243_c0_g1_i1_1_68_1580_M15_D10_Gon_Fat  
#>  9 M13_D6_Ear       0 TRINITY_DN4_c0_g1_i4_1_722_2234_M15_D10_Heart     
#> 10 M13_D6_Ear       0 TRINITY_DN28_c0_g1_i1_1_68_1580_M15_D10_Lung      
#> # … with 14,810 more rows
```
